{
    "topic": "$NAMESPACE_PUBLISHER/$TOPIC",
    "service_uuid": "$SERVICE_UUID",
    "service_name": "$SERVICE_NAME",
    "service_host": "$SERVICE_HOST",
    "created_at": "$CREATED_AT",
    "payload": $PAYLOAD
}